[
  {
    "name": "Toulouse",
    "longitude": "43.6043",
    "latitude": "1.4437"
  },
  {
    "name": "Alès",
    "longitude": "44.1333",
    "latitude": "4.0833"
  },
  {
    "name": " Auch",
    "longitude": "43.65",
    "latitude": "0.5833"
  },
  {
    "name": "Bagnols-sur-Cèze",
    "longitude": "44.1599",
    "latitude": "4.6178"
  },
  {
    "name": "Cahors",
    "longitude": "44.4491",
    "latitude": "1.4366"
  },
  {
    "name": "Carbonne",
    "longitude": "43.3",
    "latitude": "1.2333"
  },
  {
    "name": "Carcassonne",
    "longitude": "43.25",
    "latitude": "2.1667"
  },
  {
    "name": "Castelnau-le-Lez - Microsoft",
    "longitude": "43.6333",
    "latitude": "3.9"
  },
  {
    "name": "Labège",
    "longitude": "43.5304",
    "latitude": "1.536"
  },
  {
    "name": "Narbonne",
    "longitude": "43.0833",
    "latitude": "2.8333"
  },

  {
    "name": "Saint-Gaudens",
    "longitude": "43.0833",
    "latitude": "0.6667"
  }
]

