[
    {"nom":"Simplon Alès","infos":"Alès, 30100 Occitanie, France", "latitude":44.125367, "longitude":4.085282, "formation": "Aucune formation en cours"},
    {"nom":"Simplon Auch","infos":"Auch, 32000 Occitanie, France", "latitude":43.646356, "longitude":0.585051, "formation": "Aucune formation en cours"},
    {"nom":"Simplon Bagnols-sur-Cèze","infos":"188 Avenue du Commando Vigan Braquet, 30200 Bagnols-sur-Cèze, Occitanie, France", "latitude":44.166892, "longitude":4.612082, "formation": "Aucune formation en cours"},
    {"nom":"Simplon Cahors x Greta","infos":"Cahors, 46000 Occitanie, France", "latitude":44.4495, "longitude":1.4365, "formation": "Aucune formation en cours"},
    {"nom":"Simplon Carbonne","infos":"Carbonne, 31390 Occitanie, France", "latitude":43.295816, "longitude":1.225069, "formation": "Aucune formation en cours"},
    {"nom":"Simplon Carcassonne","infos":"Carcassonne, 11000 Occitanie, France", "latitude":43.213036, "longitude":2.349107, "formation": "Aucune formation en cours"},
    {"nom":"Simplon Castelnau-le-Lez - Microsoft","infos":"Castelnau-le-Lez, 34170 Occitanie, France", "latitude":43.639317, "longitude":3.913331, "formation": "Aucune formation en cours"},
    {"nom":"Simplon Labège","infos":"Labège, 31670 Occitanie, France", "latitude":43.529283, "longitude":1.529972, "formation": "Aucune formation en cours"},
    {"nom":"Simplon Narbonne","infos":"30 Avenue Docteur Paul Pompidor, 11100 Narbonne, Occitanie, France", "latitude":43.182062, "longitude":2.978459, "formation": "Aucune formation en cours"},
    {"nom":"Simplon Saint-Gaudens","infos":"Saint-Gaudens, 31800 Occitanie, France", "latitude":43.107768, "longitude":0.724722, "formation": "Aucune formation en cours"},
    {"nom":"Simplon Toulouse","infos":"Toulouse, 31000 Occitanie, France", "latitude":43.604462, "longitude":1.444247, "formation": "Hackeuses - Edition spéciale IA, Apple Foundation Program - mars/avril 2022"}
]
